…
Use filter function on the data set.

```{r ,eval = FALSE}
filter(flights, month == 1, day == 1)
#> # A tibble: 842 x 19
#>    year month   day dep_time sched_dep_time dep_delay arr_time
#>   <int> <int> <int>    <int>          <int>     <dbl>    <int>
#> 1  2013     1     1      517            515         2      830
#> 2  2013     1     1      533            529         4      850
#> 3  2013     1     1      542            540         2      923
#> 4  2013     1     1      544            545        -1     1004
#> 5  2013     1     1      554            600        -6      812
#> 6  2013     1     1      554            558        -4      740
#> # . with 836 more rows, and 12 more variables: sched_arr_time <int>,
#> #   arr_delay <dbl>, carrier <chr>, flight <int>, tailnum <chr>,
#> #   origin <chr>, dest <chr>, air_time <dbl>, distance <dbl>, hour <dbl>,
#> #   minute <dbl>, time_hour <dttm>
sum(is.na(new$dep_delay))
mean(new$dep_delay,na.rm=TRUE)

jan1 <- filter(flights, month == 1, day == 1)
(dec25 <- filter(flights, month == 12, day == 25))
#> # A tibble: 719 x 19
#>    year month   day dep_time sched_dep_time dep_delay arr_time
#>   <int> <int> <int>    <int>          <int>     <dbl>    <int>
#> 1  2013    12    25      456            500        -4      649
#> 2  2013    12    25      524            515         9      805
#> 3  2013    12    25      542            540         2      832
#> 4  2013    12    25      546            550        -4     1022
#> 5  2013    12    25      556            600        -4      730
#> 6  2013    12    25      557            600        -3      743
#> # . with 713 more rows, and 12 more variables: sched_arr_time <int>,
#> #   arr_delay <dbl>, carrier <chr>, flight <int>, tailnum <chr>,
#> #   origin <chr>, dest <chr>, air_time <dbl>, distance <dbl>, hour <dbl>,
#> #   minute <dbl>, time_hour <dttm>
…
```



Summarise and group by function. and more practice with filter, arrange, select and mutate.
```{r ,eval = FALSE}
summarise(flights, delay = mean(dep_delay, na.rm = TRUE))
#> # A tibble: 1 x 1
#>   delay
#>   <dbl>
#> 1  12.6
by_day <- group_by(flights, year, month, day)
summarise(by_day, delay = mean(dep_delay, na.rm = TRUE))
#> # A tibble: 365 x 4
#> # Groups:   year, month [?]
#>    year month   day delay
#>   <int> <int> <int> <dbl>
#> 1  2013     1     1 11.5 
#> 2  2013     1     2 13.9 
#> 3  2013     1     3 11.0 
#> 4  2013     1     4  8.95
#> 5  2013     1     5  5.73
#> 6  2013     1     6  7.15
#> # . with 359 more rows
…
# It looks like delays increase with distance up to ~750 miles 
# and then decrease. Maybe as flights get longer there's more 
# ability to make up delays in the air?
ggplot(data = delay, mapping = aes(x = dist, y = delay)) +
  geom_point(aes(size = count), alpha = 1/3) +
  geom_smooth(se = FALSE)
#> `geom_smooth()` using method = 'loess' and formula 'y ~ x'

flights %>% 
  group_by(year, month, day) %>% 
  summarise(mean = mean(dep_delay))
#> # A tibble: 365 x 4
#> # Groups:   year, month [?]
#>    year month   day  mean
#>   <int> <int> <int> <dbl>
#> 1  2013     1     1    NA
#> 2  2013     1     2    NA
#> 3  2013     1     3    NA
#> 4  2013     1     4    NA
#> 5  2013     1     5    NA
#> 6  2013     1     6    NA
#> # . with 359 more rows
flights %>% 
  group_by(year, month, day) %>% 
  summarise(mean = mean(dep_delay, na.rm = TRUE))
#> # A tibble: 365 x 4
#> # Groups:   year, month [?]
#>    year month   day  mean
#>   <int> <int> <int> <dbl>
#> 1  2013     1     1 11.5 
#> 2  2013     1     2 13.9 
#> 3  2013     1     3 11.0 
#> 4  2013     1     4  8.95
#> 5  2013     1     5  5.73
#> 6  2013     1     6  7.15
#> # . with 359 more rows
not_cancelled <- flights %>% 
  filter(!is.na(dep_delay), !is.na(arr_delay))

not_cancelled %>% 
  group_by(year, month, day) %>% 
  summarise(mean = mean(dep_delay))
#> # A tibble: 365 x 4
#> # Groups:   year, month [?]
#>    year month   day  mean
#>   <int> <int> <int> <dbl>
#> 1  2013     1     1 11.4 
#> 2  2013     1     2 13.7 
#> 3  2013     1     3 10.9 
#> 4  2013     1     4  8.97
#> 5  2013     1     5  5.73
#> 6  2013     1     6  7.15
#> # . with 359 more rows
…
#>   <chr>     <dbl> <int>
#> 1 abramge01     1     1
#> 2 banisje01     1     1
#> 3 bartocl01     1     1
#> 4 bassdo01      1     1
#> 5 berrijo01     1     1
#> 6 birasst01     1     2
#> # . with 1.891e+04 more rows
not_cancelled %>% 
  group_by(year, month, day) %>% 
  summarise(
    avg_delay1 = mean(arr_delay),
    avg_delay2 = mean(arr_delay[arr_delay > 0]) # the average positive delay
  )
#> # A tibble: 365 x 5
#> # Groups:   year, month [?]
#>    year month   day avg_delay1 avg_delay2
#>   <int> <int> <int>      <dbl>      <dbl>
#> 1  2013     1     1      12.7        32.5
#> 2  2013     1     2      12.7        32.0
#> 3  2013     1     3       5.73       27.7
#> 4  2013     1     4      -1.93       28.3
#> 5  2013     1     5      -1.53       22.6
#> 6  2013     1     6       4.24       24.4
#> # . with 359 more rows
# Why is distance to some destinations more variable than to others?
not_cancelled %>% 
  group_by(dest) %>% 
  summarise(distance_sd = sd(distance)) %>% 
  arrange(desc(distance_sd))
#> # A tibble: 104 x 2
#>   dest  distance_sd
#>   <chr>       <dbl>
#> 1 EGE         10.5 
#> 2 SAN         10.4 
#> 3 SFO         10.2 
#> 4 HNL         10.0 
#> 5 SEA          9.98
#> 6 LAS          9.91
#> # . with 98 more rows

# When do the first and last flights leave each day?
not_cancelled %>% 
  group_by(year, month, day) %>% 
  summarise(
    first = min(dep_time),
    last = max(dep_time)
  )
#> # A tibble: 365 x 5
#> # Groups:   year, month [?]
#>    year month   day first  last
#>   <int> <int> <int> <dbl> <dbl>
#> 1  2013     1     1   517  2356
#> 2  2013     1     2    42  2354
#> 3  2013     1     3    32  2349
#> 4  2013     1     4    25  2358
#> 5  2013     1     5    14  2357
#> 6  2013     1     6    16  2355
#> # . with 359 more rows


not_cancelled %>% 
  group_by(year, month, day) %>% 
  summarise(
    first_dep = first(dep_time), 
    last_dep = last(dep_time)
  )
#> # A tibble: 365 x 5
#> # Groups:   year, month [?]
#>    year month   day first_dep last_dep
#>   <int> <int> <int>     <int>    <int>
#> 1  2013     1     1       517     2356
#> 2  2013     1     2        42     2354
#> 3  2013     1     3        32     2349
#> 4  2013     1     4        25     2358
#> 5  2013     1     5        14     2357
#> 6  2013     1     6        16     2355
#> # . with 359 more rows

not_cancelled %>% 
  group_by(year, month, day) %>% 
  mutate(r = min_rank(desc(dep_time))) %>% 
  filter(r %in% range(r))
#> # A tibble: 770 x 20
#> # Groups:   year, month, day [365]
#>    year month   day dep_time sched_dep_time dep_delay arr_time
#>   <int> <int> <int>    <int>          <int>     <dbl>    <int>
#> 1  2013     1     1      517            515         2      830
#> 2  2013     1     1     2356           2359        -3      425
#> 3  2013     1     2       42           2359        43      518
#> 4  2013     1     2     2354           2359        -5      413
#> 5  2013     1     3       32           2359        33      504
#> 6  2013     1     3     2349           2359       -10      434
#> # . with 764 more rows, and 13 more variables: sched_arr_time <int>,
#> #   arr_delay <dbl>, carrier <chr>, flight <int>, tailnum <chr>,
#> #   origin <chr>, dest <chr>, air_time <dbl>, distance <dbl>, hour <dbl>,
#> #   minute <dbl>, time_hour <dttm>, r <int>

# Which destinations have the most carriers?
not_cancelled %>% 
  group_by(dest) %>% 
  summarise(carriers = n_distinct(carrier)) %>% 
  arrange(desc(carriers))
#> # A tibble: 104 x 2
#>   dest  carriers
#>   <chr>    <int>
#> 1 ATL          7
#> 2 BOS          7
#> 3 CLT          7
#> 4 ORD          7
#> 5 TPA          7
#> 6 AUS          6
#> # . with 98 more rows
not_cancelled %>% 
  count(dest)
#> # A tibble: 104 x 2
#>   dest      n
#>   <chr> <int>
#> 1 ABQ     254
#> 2 ACK     264
#> 3 ALB     418
#> 4 ANC       8
#> 5 ATL   16837
#> 6 AUS    2411
#> # . with 98 more rows
not_cancelled %>% 
  count(tailnum, wt = distance)
#> # A tibble: 4,037 x 2
#>   tailnum      n
#>   <chr>    <dbl>
#> 1 D942DN    3418
#> 2 N0EGMQ  239143
#> 3 N10156  109664
#> 4 N102UW   25722
#> 5 N103US   24619
#> 6 N104UW   24616
#> # . with 4,031 more rows
# How many flights left before 5am? (these usually indicate delayed
# flights from the previous day)
not_cancelled %>% 
  group_by(year, month, day) %>% 
  summarise(n_early = sum(dep_time < 500))
#> # A tibble: 365 x 4
#> # Groups:   year, month [?]
#>    year month   day n_early
#>   <int> <int> <int>   <int>
#> 1  2013     1     1       0
#> 2  2013     1     2       3
#> 3  2013     1     3       4
#> 4  2013     1     4       3
#> 5  2013     1     5       3
#> 6  2013     1     6       2
#> # . with 359 more rows

# What proportion of flights are delayed by more than an hour?
not_cancelled %>% 
  group_by(year, month, day) %>% 
  summarise(hour_perc = mean(arr_delay > 60))
#> # A tibble: 365 x 4
#> # Groups:   year, month [?]
#>    year month   day hour_perc
#>   <int> <int> <int>     <dbl>
#> 1  2013     1     1    0.0722
#> 2  2013     1     2    0.0851
#> 3  2013     1     3    0.0567
#> 4  2013     1     4    0.0396
#> 5  2013     1     5    0.0349
#> 6  2013     1     6    0.0470
#> # . with 359 more rows

daily <- group_by(flights, year, month, day)
(per_day   <- summarise(daily, flights = n()))
#> # A tibble: 365 x 4
#> # Groups:   year, month [?]
#>    year month   day flights
#>   <int> <int> <int>   <int>
#> 1  2013     1     1     842
#> 2  2013     1     2     943
#> 3  2013     1     3     914
#> 4  2013     1     4     915
#> 5  2013     1     5     720
#> 6  2013     1     6     832
#> # . with 359 more rows
(per_month <- summarise(per_day, flights = sum(flights)))
#> # A tibble: 12 x 3
#> # Groups:   year [?]
#>    year month flights
#>   <int> <int>   <int>
#> 1  2013     1   27004
#> 2  2013     2   24951
#> 3  2013     3   28834
#> 4  2013     4   28330
#> 5  2013     5   28796
#> 6  2013     6   28243
#> # . with 6 more rows
…
