…
```{r setup, include=FALSE}
knitr::opts_chunk$set(echo = TRUE)
```

## R Markdown

This is an R Markdown document. Markdown is a simple formatting syntax for authoring HTML, PDF, and MS Word documents. For more details on using R Markdown see <http://rmarkdown.rstudio.com>.

When you click the **Knit** button a document will be generated that includes both content as well as the output of any embedded R code chunks within the document. You can embed an R code chunk like this:

data visualization: load dataset first.
```{r, echo=FALSE}
library(tidyverse)
mpg
#> # A tibble: 234 x 11
#>   manufacturer model displ  year   cyl trans  drv     cty   hwy fl    class
#>   <chr>        <chr> <dbl> <int> <int> <chr>  <chr> <int> <int> <chr> <chr>
#> 1 audi         a4      1.8  1999     4 auto(. f        18    29 p     comp.
#> 2 audi         a4      1.8  1999     4 manua. f        21    29 p     comp.
#> 3 audi         a4      2    2008     4 manua. f        20    31 p     comp.
#> 4 audi         a4      2    2008     4 auto(. f        21    30 p     comp.
#> 5 audi         a4      2.8  1999     6 auto(. f        16    26 p     comp.
#> 6 audi         a4      2.8  1999     6 manua. f        18    26 p     comp.
#> # . with 228 more rows
```
…
